id;matricule
1;communities Berkshire
2;program
3;bypassing Grocery
4;Investor
5;Extension Clothing
6;Maldives Implementation
7;Plain Generic Concrete Sausages interactive
8;Designer Web
9;Lead blue GB
10;Cape Verde
