id;is_active;libelle
1;false;Tactics Nevada Mauritania
2;true;Alabama Palau Cameroon
3;false;JBOD Fully-configurable
4;false;Armenian Dram Turkish Lira program
5;false;portals Savings Account
6;false;back-end
7;false;Clothing Mount Small Soft Bike
8;true;olive applications Program
9;true;Re-contextualized THX Re-engineered
10;true;Jewelery grey
