{
  "name": "Niveau",
  "fields": [
    {
      "fieldName": "codeNiveau",
      "fieldType": "String",
      "fieldValidateRules": [
        "required",
        "minlength",
        "unique"
      ],
      "fieldValidateRulesMinlength": "3"
    },
    {
      "fieldName": "libelleLong",
      "fieldType": "String",
      "fieldValidateRules": [
        "required"
      ]
    }
  ],
  "relationships": [
    {
      "relationshipType": "many-to-one",
      "otherEntityName": "formation",
      "otherEntityRelationshipName": "formation"
    },
    {
      "relationshipType": "one-to-many",
      "otherEntityName": "inscription",
      "otherEntityRelationshipName": "niveau",
      "relationshipValidateRules": "required",
      "relationshipName": "niveau"
    }
  ],
  "changelogDate": "20200814221744",
  "entityTableName": "niveau",
  "dto": "no",
  "pagination": "pagination",
  "service": "no",
  "jpaMetamodelFiltering": false,
  "fluentMethods": true,
  "readOnly": false,
  "embedded": false,
  "clientRootFolder": "",
  "applications": "*"
}
